…
    ## `summarise()` ungrouping output (override with `.groups` argument)

``` r
aggregate_df
```

    ## # A tibble: 50 x 3
    ##    city_state     hom_total hom_unsolved
    ##    <chr>              <int>        <int>
    ##  1 Albuquerque_NM       378          146
    ##  2 Atlanta_GA           973          373
    ##  3 Baltimore_MD        2827         1825
    ##  4 Baton Rouge_LA       424          196
    ##  5 Birmingham_AL        800          347
    ##  6 Boston_MA            614          310
    ##  7 Buffalo_NY           521          319
    ##  8 Charlotte_NC         687          206
    ##  9 Chicago_IL          5535         4073
    ## 10 Cincinnati_OH        694          309
    ## # … with 40 more rows
…
``` r
results_df =
  aggregate_df %>% 
  mutate(
    prop_tests = map2(.x = hom_unsolved, .y = hom_total, ~prop.test(x = .x, n = .y)), # map two inputs
    tidy_tests = map(.x = prop_tests, ~broom::tidy(.x)) # tidy version of the tests
  ) %>% 
  select(-prop_tests) %>% 
  unnest(tidy_tests) %>%
  select(city_state, estimate, conf.low, conf.high)

results_df
```

    ## # A tibble: 50 x 4
    ##    city_state     estimate conf.low conf.high
    ##    <chr>             <dbl>    <dbl>     <dbl>
    ##  1 Albuquerque_NM    0.386    0.337     0.438
    ##  2 Atlanta_GA        0.383    0.353     0.415
    ##  3 Baltimore_MD      0.646    0.628     0.663
    ##  4 Baton Rouge_LA    0.462    0.414     0.511
    ##  5 Birmingham_AL     0.434    0.399     0.469
    ##  6 Boston_MA         0.505    0.465     0.545
    ##  7 Buffalo_NY        0.612    0.569     0.654
    ##  8 Charlotte_NC      0.300    0.266     0.336
    ##  9 Chicago_IL        0.736    0.724     0.747
    ## 10 Cincinnati_OH     0.445    0.408     0.483
    ## # … with 40 more rows
…
lda_df
```

    ## # A tibble: 160 x 4
    ##    group   id    week  measurement
    ##    <chr>   <chr> <chr>       <dbl>
    ##  1 control 01    1            0.2 
    ##  2 control 01    2           -1.31
    ##  3 control 01    3            0.66
    ##  4 control 01    4            1.96
    ##  5 control 01    5            0.23
    ##  6 control 01    6            1.09
    ##  7 control 01    7            0.05
    ##  8 control 01    8            1.94
    ##  9 control 02    1            1.13
    ## 10 control 02    2           -0.88
    ## # … with 150 more rows
…
Set mu = 0, generate 5000 dataset from a normal distribution.

``` r
set.seed(7)
sim_results =   
  rerun(5000, sim_mean_t(mu = 0)) %>% 
  bind_rows() %>% 
  mutate(p_value = t_test$p.value) %>% 
  select(mu_hat, p_value)

sim_results
```

    ## # A tibble: 5,000 x 2
    ##     mu_hat p_value
    ##      <dbl>   <dbl>
    ##  1  1.98    0.0642
    ##  2  0.182   0.805 
    ##  3 -0.0331  0.969 
    ##  4  0.956   0.249 
    ##  5  0.773   0.344 
    ##  6  0.356   0.687 
    ##  7  0.793   0.445 
    ##  8 -1.07    0.184 
    ##  9 -0.476   0.676 
    ## 10  0.437   0.669 
    ## # … with 4,990 more rows
…
sim_results =
  sim_results %>% 
  mutate(p_value = t_test$p.value) %>% 
  select(mu, mu_hat, p_value)

sim_results
```

    ## # A tibble: 35,000 x 3
    ##       mu  mu_hat p_value
    ##    <dbl>   <dbl>   <dbl>
    ##  1     0  1.98    0.0642
    ##  2     0  0.182   0.805 
    ##  3     0 -0.0331  0.969 
    ##  4     0  0.956   0.249 
    ##  5     0  0.773   0.344 
    ##  6     0  0.356   0.687 
    ##  7     0  0.793   0.445 
    ##  8     0 -1.07    0.184 
    ##  9     0 -0.476   0.676 
    ## 10     0  0.437   0.669 
    ## # … with 34,990 more rows
…
